{
  "0": "2020-03-21T22:33:12.597Z",
  "1": "8 (21-03-2020)",
  "2": "CAR001",
  "3": "Carabobo",
  "4": "Tipo IV",
  "5": "MPPS",
  "6": 7,
  "7": "No",
  "8": 60,
  "9": "No",
  "10": 7,
  "11": "No",
  "12": "Sí",
  "13": "No",
  "14": "No",
  "15": "No hay",
  "16": "Hay de manera intermitente",
  "17": "No hay",
  "18": "No hay",
  "19": 1,
  "20": 0,
  "21": 0,
  "22": 0,
  "23": 1,
  "24": 0,
  "25": "Sí hay",
  "26": "Hay de manera intermitente"
}
