{
    "gcp_project_id": "event-pipeline",
    "google_sheet_to_bq_jobs": [
        {
            "name": "covid_hospital_ira_response",
            "dest_project_dataset_table": "event-pipeline.angostura_dev.covid_hospital_ira_response_raw",
            "table_schema": "bq_schemas/covid_hospital_ira_response.json",
            "skip_leading_rows": 1,
            "source_uris":  ["https://docs.google.com/spreadsheets/d/1nIagXJ-FUT_paAgi6-dHrsOUj5xx0CxLb7uAThb0Kso/edit#gid=1003838168"],
            "max_bad_records":  2000,
            "ignore_unknown_values": false
        }
    ],
    "pubsub_to_bq_jobs": [
        {
            "name": "raw_event",
            "pusub_subscription": {
                "name": "angostura_raw_dev",
                "subscription": "projects/event-pipeline/subscriptions/angosturagate-dev-gcs",
                "gcs_output_directory": "gs://angostura-dev/proxy-raw-dev/",
                "output_filename_prefix": "raw-"
            },
            "bq_load_job": {
                "job_name_suffix": "raw_event",
                "table_name": "angostura_dev.raw_events",
                "gcs_transformer_filepath": "gs://angostura-dev/bq-config/dataflow-transformers/raw_event_transformer.js",
                "gcs_schema_filepath": "gs://angostura-dev/bq-config/schemas/raw_event_schema.json",
                "gcs_input_directory_pattern": "gs://angostura-dev/proxy-raw-dev/*/*/*/*/*.json",
                "temp_directory": "gs://angostura-dev/bq-temp/BigQueryWriteTemp/dev/",
                "post_transform": {
                    "source_column": "payload",
                    "filter_column": "event",
                    "jobs": [{
                        "job_name_suffix": "eh_health_survey_response",
                        "target_table": "angostura_dev.eh_health_survey_response",
                        "sql_script": "bq_sql/eh_survey.sql"
                    }, {
                        "job_name_suffix": "covid_bot_diagnostic_response",
                        "target_table": "angostura_dev.covid_bot_diagnostic_response",
                        "sql_script": "bq_sql/covid_bot_diagnostic.sql"
                    }, {
                        "job_name_suffix": "probe",
                        "target_table": "angostura_dev.probe",
                        "sql_script": "bq_sql/probe.sql"
                    }, {
                        "job_name_suffix": "monitor_ciudad_agua",
                        "target_table": "angostura_dev.monitor_ciudad_agua",
                        "sql_script": "bq_sql/monitor_ciudad_agua.sql"
                    }]
                }
            }
        }
    ],
    "gcs_to_bq_dags": [
        {
            "name": "better_together_daily_9AM_UTC",
            "cron_schedule": "0 9 * * *",
            "jobs": [
                {
                    "job_type": "gcs_to_bq",
                    "job_id": "codhez_daily_food_raw",
                    "src_bucket": "angostura-better-together-prod",
                    "src_path_patterns": ["juntos_es_mejor/{{ ds }}/form_data/5378134440673280/5378134440673280_all.csv"],
                    "dst_table": "better_together_raw.codhez_daily_food_consumption_dev",
                    "skip_leading_rows": 1,
                    "write_disposition": "WRITE_TRUNCATE",
                    "schema_filepath": "bq_schemas/better_together/codhez_daily_food_consumption.json"
                },
                {
                    "job_type": "sql_transform",
                    "job_id": "codhez_daily_food_rich",
                    "dst_table": "better_together.codhez_daily_food_consumption_dev",
                    "sql_script": "bq_sql/better_together/codhez_daily_food_consumption.sql",
                    "sql_params": {
                        "src_table": "better_together_raw.codhez_daily_food_consumption_dev"
                    },
                    "write_disposition": "WRITE_TRUNCATE",
                    "dependencies": ["codhez_daily_food_raw"]
                },
                {
                    "job_type": "sql_transform",
                    "job_id": "codhez_daily_food_long",
                    "dst_table": "better_together.codhez_daily_food_consumption_long_dev",
                    "sql_script": "bq_sql/better_together/codhez_daily_food_consumption_long.sql",
                    "sql_params": {
                        "src_table": "better_together.codhez_daily_food_consumption_dev"
                    },
                    "write_disposition": "WRITE_TRUNCATE",
                    "dependencies": ["codhez_daily_food_rich"]
                },
                {
                    "job_type": "gcs_to_bq",
                    "job_id": "codhez_weekly_food_raw",
                    "src_bucket": "angostura-better-together-prod",
                    "src_path_patterns": ["juntos_es_mejor/{{ ds }}/form_data/5278128652156928/5278128652156928_all.csv"],
                    "dst_table": "better_together_raw.codhez_weekly_food_consumption_dev",
                    "skip_leading_rows": 1,
                    "write_disposition": "WRITE_TRUNCATE",
                    "schema_filepath": "bq_schemas/better_together/codhez_weekly_food_consumption.json"
                },
                {
                    "job_type": "sql_transform",
                    "job_id": "codhez_weekly_food_rich",
                    "dst_table": "better_together.codhez_weekly_food_consumption_dev",
                    "sql_script": "bq_sql/better_together/codhez_weekly_food_consumption.sql",
                    "sql_params": {
                        "src_table": "better_together_raw.codhez_weekly_food_consumption_dev"
                    },
                    "write_disposition": "WRITE_TRUNCATE",
                    "dependencies": ["codhez_weekly_food_raw"]
                },
                {
                    "job_type": "sql_transform",
                    "job_id": "codhez_weekly_food_long",
                    "dst_table": "better_together.codhez_weekly_food_consumption_long_dev",
                    "sql_script": "bq_sql/better_together/codhez_weekly_food_consumption_long.sql",
                    "sql_params": {
                        "src_table": "better_together.codhez_weekly_food_consumption_dev"
                    },
                    "write_disposition": "WRITE_TRUNCATE",
                    "dependencies": ["codhez_weekly_food_rich"]
                },
                {
                    "job_type": "gcs_to_bq",
                    "job_id": "health_care_access_raw",
                    "src_bucket": "angostura-better-together-prod",
                    "src_path_patterns": ["juntos_es_mejor/{{ ds }}/form_data/6350362045054976/6350362045054976_all.csv"],
                    "dst_table": "better_together_raw.health_care_access_dev",
                    "skip_leading_rows": 1,
                    "write_disposition": "WRITE_TRUNCATE",
                    "schema_filepath": "bq_schemas/better_together/health_care_access.json"
                },
                {
                    "job_type": "sql_transform",
                    "job_id": "health_care_access_rich",
                    "dst_table": "better_together.health_care_access_dev",
                    "sql_script": "bq_sql/better_together/health_care_access.sql",
                    "sql_params": {
                        "src_table": "better_together_raw.health_care_access_dev"
                    },
                    "write_disposition": "WRITE_TRUNCATE",
                    "dependencies": ["health_care_access_raw"]
                },
                {
                    "job_type": "sql_transform",
                    "job_id": "health_care_access_long",
                    "dst_table": "better_together.health_care_access_long_dev",
                    "sql_script": "bq_sql/better_together/health_care_access_long.sql",
                    "sql_params": {
                        "src_table": "better_together.health_care_access_dev"
                    },
                    "write_disposition": "WRITE_TRUNCATE",
                    "dependencies": ["health_care_access_rich"]
                },
                {
                    "job_type": "sql_transform",
                    "job_id": "all_sectors_rollup",
                    "dst_table": "better_together.all_sectors_rollup_dev",
                    "sql_script": "bq_sql/better_together/all_sectors_rollup.sql",
                    "sql_params": {
                        "daily_food_table": "better_together.codhez_daily_food_consumption_dev",
                        "weekly_food_table": "better_together.codhez_weekly_food_consumption_dev",
                        "monthly_health_table": "better_together.health_care_access_dev"
                    },
                    "write_disposition": "WRITE_TRUNCATE",
                    "dependencies": ["codhez_daily_food_rich", "codhez_weekly_food_rich", "health_care_access_rich"]
                }
            ]
        }
    ]
}
